road_ref	origin	destination	road_is_urban	road_name	town
1	Gdańsk	Milówka			
10	Lubieszyn/Linken (B 104)	Plońsk			
10a		Toruń Zachód (S10a)		Bydgoska	Toruń
10b	Kobylanka	Stargard Wschód			
11	Kołobrzeg	Bytom			
11e					Jarocin
12	Łęknica/Krauschwitz (S 127)	Dorohusk/Jagodzin (M-07)			
12a				obwodnica	Szprotawa
12b				obwodnica	Przemków
12d				obwodnica	Piaski
12e				obwodnica	Żagań
12f				obwodnica	Żary
12g				obwodnica	Borek Wilkopolski
12i	granica województwa	Puławy (S12s)			
12j				obwodnica	Puławy
12m				obwodnica	Opoczno
12n				obwodnica	Łęknica
12r	Radom Kierzków	Długojów			
12s	Zwoleń	Puławy Wisła			
12t				Powstanców Wielkopolskich	Jarocin
13	Szczecin	Rosówek/Gartz (B 2)			
14	Łowicz	Łódż			
14a				Strykowska	Łódż
14b				obwodnica	Stryków
14z			true		Łódż
15	Trzebnica	Ostróda			
15a	Gniezno	Lulkowo			
15c				Staszica	Inowrocław
15d				obwodnica	Brodnica
15f	Markowice	Latkowo			
15g			true		Trzebnica
16	Dolna Grupa	Sejny/Lazdijai (135)			
16a				Sikorskiego	Ełk
16b				obwodnica	Ogrodzieniec
16c	Wójtowo	Borki Wielkie			
16d				obwodnica	Ełk
16e	DK8	Augustów Szosa do Sejn	true		Augustów
16g				Lubawska	Ostróda
16h				obwodnica	Ostróda
16i	Olsztyn Zachód	Olsztyn Południe			
17	Warszawa	Hrebenne/Rawa Ruska (M-09)			
17a				Chełmska	Piaski
17b	Sitaniec	Hrubieszowska			Zamość
17d	Żyrzyn	Kurów Zachód			
18	Olszyna/Bademeusel (A 15)	Krzyżowa			
19	Kuźnica/Bruzgi (M6)	Barwinek			
19a				obwodnica	Lubartów
19b				obwodnica	Międzyrzec Podlaski
19c				obwodnica	Kock
19f	Lublin Sławinek				
1a	Siewierz	Dąbrowa Górniczna			
1c				obwodnica	Kował
1d	Łódż	Rzgów			
1e	S1	Władysława Sikorskiego		Beskidzka	Tychy
1f	Przybędza	Milówka			
2	Świecko/Frankfurt (A 12)	Brest			
20	Stargard	Gdynia			
20a	5 Marca	Rondo Księdza Jana Dybowskiego CR	true		Złocieniec
20b				Wolności	Bytów
20c				obwodnica	Węgorzyno
20d				Bydgoska	Stargard
20e				obwodnica	Kościerzyna
21	Miastko	Ustka			
22	Kostrzyn/Küstrin (B 1)	Grzechotki/Mamonowo (27A-002)			
22a	Prądocin	Gorzów Wielkopolski Południe			
22b	Słonsk	Karkoszów			
22c				obwodnica	Człuchów
22d				obwodnica	Chojnice
23	Myśliborz	Sarbinowo			
24	Pniewy	Wałdowice			
24a			false		Skwierzyna
25	Bobolice	Oleśnica			
25a				obwodnica	Ślesin
25b				Zamkowa	Człuchów
25d	Konin	Modła (A2)			
25e	Kalisz	Skalmierzyca			
25i	Sławęcinek	Latkowo			
26	Krajnik Dolny/Schwedt (B166)	Myśliborz			
27	Przewóz/Podrosche (K 8410)	Zielona Góra			
28	Zator	Medyka/Szeginie (M-11)			
28a				obwodnica	Gorlice
28b				obwodnica	Biecz
28c				Jasło	ob
28d	Skawce	Zembrzyce			
28e				obwodnica	Sanok
28f				Lipińskiego	Sanok
29	Słubice (B 5)	Krosno Odrzańskie			
2a				obwodnica	Sochaczew
2b	Świecko/Frankfurt (A12)	Świecko (A2)	false		
2c	Choszczówka Rudzka	A2			
2d	Ursynow	Wawer			Warszawa
3	Świnoujsçie	Jakuszyce/Nový Svět (I/10)			
30	Zgorzelec	Jelenia Góra			
30a				obwodnica	Radoniów
31	Szczecin	Słubice			
32	Gubinek/Klein Gastrose (B 97)	Stęszew			
32a	Sulechów (S3)	Sulechów Wolsztyńska	false		
33	Kłodzko	Boboszów/Dolní Lipka (I/43)			
33a				obwodnica	Kłodzko
34	Świebodzice	Dobromierz			
35	Golińsk/Starostin (II/302)	Bielany Wrocławskie			
35a	Pokoju	Kobierzyce (S8)		obwodnica	Tyniec Mały
36	Prochowice	Ostrów Wielkopolski			
36a				obwodnica	Ścinawa
36b				obwodnica	Rawicz
37	Darłowo	Karwice			
38	Pietrowice/Krnov (I/45)	Reńska Wieś			
38a				Sosnowiecka	Głubczyce
39	Łagiewniki	Kępno			
3a				obwodnica	Dargobąadz
3b				obwodnica	Wolin
3e				obwodnica	Międzyrzecz
3g				obwodnica	Nowa Sól
3j				obwodnica	Bolków
3k				obwodnica	Maciejowa
4	Jędrzychowice	Korczowa/Krakowiec (M-10)			
40	Głuchołazy (I/44)	Pyskowice			
40a					Lubrza
40b				obwodnica	Kędzierzyn-Koźle
41	Nysa	Trzebina/Bartultovice (I/57)			
41a				obwodnica	Prudnik
41b				obwodnica	Nysa
42	Namysłów	Rudnik			
42a			true		Skarżysko-Kamienna
42c				obwodnica	Kluczbork
43	Wieluń	Częstochowa			
43b				obwodnica	Krzepice
44	Gliwice	Kraków			
44a					Bieruń
44b				obwodnica	Skawina
45	Zabełków	Złoczew			
45a				Powstanców Śląskich	Zabełków
45b				obwodnica	Poborszów
45d				obwodnica	Kluczbork
46	Kłodzko	Szczekociny			
46a				obwodnica	Dobrodzień
46c				obwodnica	Otmuchów
46d	Świetego Rocha	Aleja Jana Pawla II			Częstochowa
46f				obwodnica	Lubliniec
46g				obwodnica	Nysa
46h				obwodnica	Kłodzko
46j				obwodnica	Myślina
47	Zabornia	Zakopane			
47a	Zabornia	Chabówka			
48	Tomaszów Mazowiecki	Kock			
49	Nowy Targ	Jurgów/Tatranská Javorina (I/66)			
49a				Aleja Tysiąclecia	Nowy Targ
4b				obwodnica	Pilzno
4d				obwodnica	Ropczyce
5	Nowe Marzy	Lubawka/Královec (I/16)			
50	Ciechanów	Ostrów Mazowiecka			
50a				obwodnica	Mszczonów
50b	Mińsk Mazowiecki	A2			
50c				obwodnica	Słomczyn
50d	Ostrowiec	Nowe Grobice			
50e					Kobylniki
50f	Wiskitki	Mszczonów			
50g				obwodnica	Góra Kalwaria
51	Bezledy/Bagrationowsk (27A-018)	Olsztynek			
51a	Barcikowo	Spręcowo			
51b	Ameryka	Olsztynek Zachód			
51d	Cementowa	Olsztyn Wschód (S16)			Olsztyn
52	Cieszyn	Kraków			
52a				obwodnica	Wadowice
53	Olsztyn	Ostrołęka			
53a	Olsztyn Pieczewo (S16)	Klewki			
54	Chruściel	Gronowo/Mamonowo (27A-020)			
55	Nowy Dwór Gdański	Stolno			
55b	Żuławy Wschód (S7)	Rychnowo Żuławskie			
56	Koronowo	Trzeciewiec			
57	Bartoszyce	Pułtusk			
58	Olsztynek	Szczuczyn			
58b			true		Pisz
58c	Olsztynek Wschód	Mierkowska	true		Olsztynek
59	Giżycko	Rozogi			
59a	Nawiady	Mojtyny			
59b				obwodnica	Mrągowo
5a					Kamienna Góra
5b				obwodnica	Szubin
5c	Nowe Marzy	Świecie			
6	Szczecin	Gdynia			
60	Topola Królewska	Ostrów Mazowiecka			
60a				obwodnica	Kutno
60c				obwodnica	Gostynin
60d				obwodnica	Płock
61	Warszawa	Augustów			
61a	Legionowo	Białolęka			Jabłonna
61b				obwodnica	Serock
61c				obwodnica	Stawiski
61d				obwodnica	Szczuczyn
61e	Rajgród	Bargłów Dwórny	false	obwodnica	Bargłów Kościelny
61i	S7	Modlińska	true		Warszawa
62	Strzelno	Siemiatycze			
62a				obwodnica	Węgrów
62c				most Piłsudskiego	Wyszków
62d					Serock
62e	DK91	DK67			Włocławek
62f				obwodnica	Płock
63	Ruskie Pole (granica państwa)	Sławatycze/Domaczewo (P94)			
63a					Zambrów
63c	Białostocka	Aleja Woska Polskiego			Zambrów
64	Piątnica Poduchowna	Jeżewo Stare			
65	Gołdap/Gusiew (27A-011)	Bobrowniki/Bierestowica			
65a			true	Przemysłowa	Ełk
65b	Gołdap	Olecko			
65c				obwodnica	Olecko
66	Zambrów	Połowce/Piszczatka (P16)			
66a	Ostrowska (DK63)	S8			Zambrów
66b					Zambrów
67	Lipno	Włocławek			
67a					Włocławek
68	Kukuryki/Kozłowicze (M1)	Wólka Dobryńska			
69b	Żywiec	Węgierska Góra			
6a				obwodnica	Karlino
6b				obwodnica	Sławna
7	Żukowo	Chyżne/Trstená (I/59)			
70	Łowicz	Huta Zawadzka			
70a	Nieborów	Skiernewice (A4)			
70b				obwodnica	Skiernewice
71	Stryków	Rzgów			
71k	Lutomierska	Warszawska	true		Pabianice
72	Konin	Rawa Mazowiecka			
72a	Konin Wschód	Żdżary			
72b				Europejska	Konin
72z				Aleja Włókniarzy	Łódż
73	Wiśniówka	Jasło			
73a	Pilzno	Kamienica Dolna			
73b	DK94	Paderewskiego			Pilzno
73c	Kielce Północ (S7)				
73d	Brzozówka	Słoneczna			Tarnów
73e				obwodnica	Dąbrowa Tarnowska
74	Wieluń	Zosin/Uściług (H-22)			
74a				obwodnica	Kraśnik
74b	Ozarów				
74d	Hrubieszowska	Sitaniec		obwodnica	Zamość
74e	Hrubieszow	Teptiuków			
74f				obwodnica	Frampol
74g				obwodnica	Hrubieszów
74h	Kielce	Cedzyna			
74i	Kielce Łódzka	Kostomłoty I			
74j	Wieluń	Piotrków Trybunalski			
74k					
75	Kraków	Muszynka/Gaboltov (3483A)			
75a	Brzesko (A4)	Jasien (DK94)			
76	Wilga	Łuków			
77	Lipnik	Przemyśl			
77a				obwodnica	Rozwadów
77b				obwodnica	Leżajsk
78	Chałupki/Stary Bohumin (I/67)	Chmielnik			
78a	Stare Chałupki/Stary Bohumin (I/67)	Chałupki			
78b				obwodnica	Siewierz
78d				obwodnica	Jędrzejów
79	Warszawa	Bytom			
79b	Raków	Służewiec	true		Warszawa
79c				obwodnica	Góra Kalwaria
7b	Skarżysko Kamienna Zachód				
7c	Żukowo	Gdańsk Karczemki			
7j	Załuski	Nidzica			
7l	Jędrzejów	Łączyn			
7r	Janki	DW721	false		Warszawa
8	Słone/Běloves (I/33)	Budzisko/Kalvarija (A5)			
8e	Magnice	Kobierzyce			
80	Pawłówek	Lubicz			
80a	Grunwaldzka	Fordońska			Bydgoszcz
81	Katowice	Skoczów			
81a			true		Katowice
82	Lublin	Włodawa			
83	Turek	Sieradz			
84	Sanok	Krościenko/Smolnica (T-14-01)			
85	Nowy Dwór Mazowiecki	Kazuń			
86	Podwarpie	Tychy			
86a	Tychy Beskidzka	Tychy (S1)	true	Beskidzka	Tychy
87	Nowy Sacz	Łomnica Zdrój/Mnišek nad Popradom (I/68)			
87a	Piwniczna Zdrój	Łomnica Zdrój/Mnišek nad Popradom (I/68)			
88	Strzelce Opolskie	Bytom			
89	Gdańsk terminal promowy Westerplatte	Gdańsk Port (S7)	true	Majora Henryka Sucharskiego	Gdańsk
8b					
8e					
8g				obwodnica	Zambrów
8i	Augustów	Suwałki			
8j	Poddubówek	Dubowo			
8o				obwodnica	Kłodzko
9	Radom	Rzeszów			
90	Jeleń	Baldram			
91	Gdańsk	Podwarpie			
91c	Piotrków Trybunalski	Częstochowa			
91d	Bardzinek	Błonie		obwodnica	Krośniewice
91e				obwodnica	Kował
91g					Włocławek
91z	Zgierska	Rzgowska	true		Łódż
92	Rzepin	Kałuszyn			
92a	Błonie	Pomarzany		obwodnica	Krośniewice
92b	Rzepin	Wrzesnia			
92e				obwodnica	Sochaczew
93	Garz (B 110)	Świnoujsçie Łunowo			
94	Zgorzelec	Korszowo			
94a				Piastowska	Legnica
94b	Bytom	Sławków			
94c	Wrzoski				Opole
94d	Zgorzelec	Krzywa			
94g	Kraków	Pogórska Wola			
94h	Modlnica	Modlniczka			
94i				obwodnica	Wojnicz
94j				obwodnica	Pilzno
94k				obwodnica	Ropczyce
94l				obwodnica	Jarosław
95				Księdza rotmistrza Zdzisława Peszkowskiego	Grudziądz
96	Turzno (A1)	DK15	false		
96a	Turzno (A1)	DK15	false		
97	Rzeszów Wschód (A1)	Rzeszów Lwówska			
9a				obwodnica	Głogów Małopolski
A1	Gdańsk	Gorzyczki/Bohumin (D1)			
A18	Olszyna/Bademeusel (A 15)	Krzyżowa			
A1a	Gliwice	Gorzyczki/Bohumin (D1)	false		
A1b	Gliwice Wschód	Gliwice Sośnica	false		
A1c	Piekary Śląskie	Gliwice Wschód	false		
A1d	Pyrzowice	Piekary Śląskie	false		
A2	Świecko	Kukuryki/Kozłowicze (M1)			
A2a			false	obwodnica	Mińsk Mazowiecki
A4	Görlitz/Jędrzychowice (A 4)	Korczowa/Krakowiec (M-10)			
A4a	Görlitz/Jędrzychowice (A 4)	Zgorzelec	false		
A50				obwodnica	Warszawa
A6	Kołbaskowo/Pomellen (A 11)	Rzęsnica (S3/S6)		obwodnica	Szczecin
A8e			false	obwodnica	Wrocław
S1	Pyrzowice	Zwardoń/Skalité (D3)			
S10	Szczecin	Warszawa			
S10a			false	obwodnica	Toruń
S10b			false	obwodnica	Stargard
S10c			false	obwodnica	Wyrzysk
S10d	Wałcz	Witankowo	false		
S10e	Bydgoszcz Błonie	Bydgosczcz Południe	false		
S11	Kołobrzeg	Piekary Śląskie			
S11a	Poznań Krzesiny	Kornik Południe	false		
S11b			false	obwodnica	Ostrów Wielkopolskie
S11c			false	zachodnia obwodnica	Poznań
S11d	Mieszków	Jarocin	false		
S11f	Kępno Północ	Kępno (S8)	false		
S11g			false	obwodnica	Sczeczinek
S12	Piotrków Trybunalski	Dorohusk/Jagodzin (M-07)			
S12d			false	obwodnica	Piaski
S12k	Jastków	Lublin	false		
S12s	Zarzecze	Lublin	false		
S14				zachodnia obwodnica	Łódż
S16	Olsztyn	Knyszyn			
S16i			false	obwodnica	Olsztyn
S17	Warszawa	Hrebenne/Rawa Ruska (M-09)			
S17a			false	obwodnica	Garwolin
S17c			false	obwodnica	Garwolin
S17e	Kurów	Jastków	false		
S19	Kuźnica/Bruzgi (M6)	Barwinek			
S19c			false	obwodnica	Kock
S19d	Lublin Sławinek	Lublin Węglin	false		
S1a	Pyrzowice	Podwarpie	false	obwodnica	Katowice
S1f	Bielsko-Biała	Pryzbędza	false		
S1g	Milówka	Zwardoń/Skalité (D3)	false		
S2				płd. obwodnica	Warszawa
S22	Elbląg	Grzechotki/Mamonowo (27A-002)			
S3	Świnoujsçie	Lubawka			
S3a	Szczecin	Bolków	false		
S3f			false	obwodnica	Gorzów Wielkopolskie
S3h			false		Parłówko
S3i			false		Międzyrzecz
S5	Ostróda	Bolków			
S50				obwodnica	Warszawa
S51	Olsztyn	Olsztynek			
S51b	Ameryka	Olsztynek Zachód	false		
S51c	Olsztyn	Ameryka	false		
S51d	Olsztyn Cementowa	Olsztyn Wschód	false		
S52	Cieszyn	Kraków			
S52b	Cieszyn	Bielsko-Biała	false		
S52c	Balice I	Modlniczka	false		
S5c	Nowe Marzy	Świecie	false		
S5d	Gniezno	Poznań	false		
S5e	Poznań	Mosina	false		
S5f	Rydzyna	Wrocław	false		
S5h	Mieleszyn	Gniezno	false		
S5i	Lipno	Rydzyna	false		
S5k	Mosina	Lipno	false		
S5l	Bydgoszcz Południe	Bydgosczcz Błonie	false		
S6	Szczecin	Gdańsk			
S61	Ostrów Mazowiecka	Budzisko/Kalvarija (A5)			
S61f	Raczki	Suwałki	false		
S69b	Żywiec	Przybedza	false		
S69d	Milówka	Zwardoń/Skalité (D3)	false		
S6c			false	obwodnica	Słupsk
S6d	Goleniów	Koszalin	false		
S7	Gdynia	Rabka-Zdrój			
S74	Piotrków Trybunalski	Nisko			
S74h	Kielce	Cedzyna	false		
S79	Warszawa Marynarska	Warszawa Lotnisko	true		Warszawa
S79a	Warszawa Marynarska	Warszawa Lotnisko	true		Warszawa
S7a			false	obwodnica	Białobrzegi
S7b	Myślenice	Rabka-Zdrój	false		
S7c	Kraków Przewóz	Kraków Bieżanów			
S7d			false	obwodnica	Płońsk
S7e	MOP Występa	Kielce Północ	false		
S7f	Skarżysko-Kamienna	MOP Występa	false		
S7g	Elbląg	Olsztynek	false		
S7h			false		Skarżysko-Kamienna
S7i	Gdańsk	Elbląg	false		
S7j	Olsztynek	Napierki	false		
S7k			false	obwodnica	Kielce
S7l	Jędrzejów Północ	Jędrzejów Wschód	false		
S7m	Warszawa Salomea	Warszawa Opacz			Warszawa
S7n	Radom	Skarżysko-Kamienna	false		
S7o	Kraków Nowa Huta	Kraków Przewóz			Kraków
S7p	Jędrzejów Wschód	Zagóra	false		
S7r	Kielce	Jędrzejów	false		
S8	Kłodzko	Białystok			
S86	Sosnowiec	Katowice			
S8a			false	obwodnica	Ostrów Mazowiecka
S8b			false		
S8d			false	obwodnica	Wyszków
S8e	Wrocław	Łódż	false		
S8f	Konotopa	Warszawa Modlińska			Warszawa
S8g			false	obwodnica	Zambrów
S8h	Piotrków Trybunalski	Warszawa	false		
S8l	Paszków	Opacz	false		
S8n	Zambrów	Jeżewo	false		
S8p	Marki	Radzymin	false		
S8z	Warszawa Modlińska	Warszawa Piłsudskiego			
